%YAML 1.1
%TAG !u! tag:unity3d.com,2011:
--- !u!64 &4716897188863034229
MeshCollider:
  m_ObjectHideFlags: 0
  m_CorrespondingSourceObject: {fileID: 0}
  m_PrefabInstance: {fileID: 0}
  m_PrefabAsset: {fileID: 0}
  m_GameObject: {fileID: 735195688424817039}
  m_Material: {fileID: 0}
  m_IsTrigger: 0
  m_Enabled: 1
  serializedVersion: 3
  m_Convex: 1
  m_CookingOptions: 14
  m_Mesh: {fileID: 4300000, guid: 561e93a8636d76648b09b7ecf8151d52, type: 3}
--- !u!1001 &735195688424720175
PrefabInstance:
  m_ObjectHideFlags: 0
  serializedVersion: 2
  m_Modification:
    m_TransformParent: {fileID: 0}
    m_Modifications:
    - target: {fileID: 100000, guid: 561e93a8636d76648b09b7ecf8151d52, type: 3}
      propertyPath: m_Name
      value: stone_small2
      objectReference: {fileID: 0}
    - target: {fileID: 400000, guid: 561e93a8636d76648b09b7ecf8151d52, type: 3}
      propertyPath: m_LocalPosition.x
      value: -6.7844257
      objectReference: {fileID: 0}
    - target: {fileID: 400000, guid: 561e93a8636d76648b09b7ecf8151d52, type: 3}
      propertyPath: m_LocalPosition.y
      value: -1
      objectReference: {fileID: 0}
    - target: {fileID: 400000, guid: 561e93a8636d76648b09b7ecf8151d52, type: 3}
      propertyPath: m_LocalPosition.z
      value: 16.309439
      objectReference: {fileID: 0}
    - target: {fileID: 400000, guid: 561e93a8636d76648b09b7ecf8151d52, type: 3}
      propertyPath: m_LocalRotation.x
      value: 0
      objectReference: {fileID: 0}
    - target: {fileID: 400000, guid: 561e93a8636d76648b09b7ecf8151d52, type: 3}
      propertyPath: m_LocalRotation.y
      value: -0
      objectReference: {fileID: 0}
    - target: {fileID: 400000, guid: 561e93a8636d76648b09b7ecf8151d52, type: 3}
      propertyPath: m_LocalRotation.z
      value: -0
      objectReference: {fileID: 0}
    - target: {fileID: 400000, guid: 561e93a8636d76648b09b7ecf8151d52, type: 3}
      propertyPath: m_LocalRotation.w
      value: 1
      objectReference: {fileID: 0}
    - target: {fileID: 400000, guid: 561e93a8636d76648b09b7ecf8151d52, type: 3}
      propertyPath: m_RootOrder
      value: 0
      objectReference: {fileID: 0}
    - target: {fileID: 400000, guid: 561e93a8636d76648b09b7ecf8151d52, type: 3}
      propertyPath: m_LocalEulerAnglesHint.x
      value: 0
      objectReference: {fileID: 0}
    - target: {fileID: 400000, guid: 561e93a8636d76648b09b7ecf8151d52, type: 3}
      propertyPath: m_LocalEulerAnglesHint.y
      value: 0
      objectReference: {fileID: 0}
    - target: {fileID: 400000, guid: 561e93a8636d76648b09b7ecf8151d52, type: 3}
      propertyPath: m_LocalEulerAnglesHint.z
      value: 0
      objectReference: {fileID: 0}
    - target: {fileID: 2300000, guid: 561e93a8636d76648b09b7ecf8151d52, type: 3}
      propertyPath: m_CastShadows
      value: 0
      objectReference: {fileID: 0}
    - target: {fileID: 2300000, guid: 561e93a8636d76648b09b7ecf8151d52, type: 3}
      propertyPath: m_ReceiveShadows
      value: 0
      objectReference: {fileID: 0}
    m_RemovedComponents: []
  m_SourcePrefab: {fileID: 100100000, guid: 561e93a8636d76648b09b7ecf8151d52, type: 3}
--- !u!1 &735195688424817039 stripped
GameObject:
  m_CorrespondingSourceObject: {fileID: 100000, guid: 561e93a8636d76648b09b7ecf8151d52,
    type: 3}
  m_PrefabInstance: {fileID: 735195688424720175}
  m_PrefabAsset: {fileID: 0}
