# Blender v2.79 (sub 0) OBJ File: 'Currency.blend'
# www.blender.org
mtllib Niara.mtl
o Cylinder
v 0.530330 -0.530330 -0.150000
v 1.000000 0.000000 -0.250000
v 1.000000 0.000000 0.250000
v 0.707107 -0.707107 -0.250000
v 0.707107 -0.707107 0.250000
v 0.000000 -1.000000 -0.250000
v 0.000000 -1.000000 0.250000
v -0.707107 -0.707107 -0.250000
v -0.707107 -0.707107 0.250000
v -1.000000 -0.000000 -0.250000
v -1.000000 -0.000000 0.250000
v -0.707107 0.707107 -0.250000
v -0.707107 0.707107 0.250000
v -0.000000 1.000000 -0.250000
v -0.000000 1.000000 0.250000
v 0.707107 0.707107 -0.250000
v 0.707107 0.707107 0.250000
v 0.530330 -0.530330 -0.250000
v 0.750000 0.000000 -0.250000
v 0.853553 -0.353553 -0.250000
v 0.750000 0.000000 0.250000
v 0.530330 -0.530330 0.250000
v 0.853553 -0.353553 0.250000
v 1.200000 0.000000 -0.000000
v 0.848528 -0.848528 -0.000000
v 0.000000 -0.750000 -0.250000
v 0.353553 -0.853553 -0.250000
v 0.000000 -0.750000 0.250000
v 0.353553 -0.853553 0.250000
v 0.000000 -1.200000 -0.000000
v -0.530330 -0.530330 -0.250000
v -0.353553 -0.853553 -0.250000
v -0.530330 -0.530330 0.250000
v -0.353553 -0.853553 0.250000
v -0.848528 -0.848528 0.000000
v -0.750000 -0.000000 -0.250000
v -0.853553 -0.353553 -0.250000
v -0.750000 -0.000000 0.250000
v -0.853553 -0.353553 0.250000
v -1.200000 -0.000000 0.000000
v -0.530330 0.530330 -0.250000
v -0.853553 0.353553 -0.250000
v -0.530330 0.530330 0.250000
v -0.853553 0.353553 0.250000
v -0.848528 0.848528 0.000000
v -0.000000 0.750000 -0.250000
v -0.353553 0.853553 -0.250000
v -0.000000 0.750000 0.250000
v -0.353553 0.853553 0.250000
v -0.000000 1.200000 -0.000000
v 0.530330 0.530330 -0.250000
v 0.353553 0.853553 -0.250000
v 0.530330 0.530330 0.250000
v 0.353553 0.853553 0.250000
v 0.848528 0.848528 -0.000000
v 0.853553 0.353554 -0.250000
v 0.853553 0.353554 0.250000
v 1.024264 0.424264 -0.000000
v 0.424264 1.024264 0.000000
v -0.424264 1.024264 0.000000
v -1.024264 0.424264 0.000000
v -1.024264 -0.424264 0.000000
v -0.424264 -1.024264 -0.000000
v 0.424264 -1.024264 -0.000000
v 1.024264 -0.424264 -0.000000
v 0.750000 0.000000 0.150000
v 0.000000 -0.000000 0.150000
v 0.530330 -0.530330 0.150000
v 0.000000 -0.750000 0.150000
v -0.530330 -0.530330 0.150000
v -0.750000 -0.000000 0.150000
v -0.530330 0.530330 0.150000
v -0.000000 0.750000 0.150000
v 0.530330 0.530330 0.150000
v -0.000000 -0.000000 -0.150000
v 0.000000 -0.750000 -0.150000
v -0.530330 -0.530330 -0.150000
v -0.750000 -0.000000 -0.150000
v -0.530330 0.530330 -0.150000
v -0.000000 0.750000 -0.150000
v 0.530330 0.530330 -0.150000
v 0.750000 0.000000 -0.150000
vn -0.3827 0.9239 0.0000
vn 0.9239 -0.3827 0.0000
vn 0.7430 -0.3077 0.5944
vn 0.9239 0.3827 0.0000
vn -0.3827 -0.9239 0.0000
vn 0.3077 -0.7430 0.5944
vn 0.3827 -0.9239 0.0000
vn -0.3077 -0.7430 0.5944
vn -0.9239 -0.3827 0.0000
vn -0.7430 -0.3077 0.5944
vn -0.9239 0.3827 0.0000
vn -0.7430 0.3077 0.5944
vn 0.3827 0.9239 0.0000
vn -0.3077 0.7430 0.5944
vn 0.3077 0.7430 0.5944
vn 0.7430 0.3077 0.5944
vn 0.7430 0.3077 -0.5944
vn 0.0000 -0.0000 1.0000
vn 0.0000 0.0000 -1.0000
vn 0.3077 0.7430 -0.5944
vn -0.3077 0.7430 -0.5944
vn -0.7430 0.3077 -0.5944
vn -0.7430 -0.3077 -0.5944
vn -0.3077 -0.7430 -0.5944
vn 0.3077 -0.7430 -0.5944
vn 0.7430 -0.3077 -0.5944
usemtl None
s off
f 18//1 26//1 76//1 1//1
f 43//2 38//2 71//2 72//2
f 65//3 23//3 5//3 25//3
f 31//4 36//4 78//4 77//4
f 53//5 48//5 73//5 74//5
f 64//6 29//6 7//6 30//6
f 41//7 46//7 80//7 79//7
f 28//1 22//1 68//1 69//1
f 63//8 34//8 9//8 35//8
f 51//9 19//9 82//9 81//9
f 38//4 33//4 70//4 71//4
f 62//10 39//10 11//10 40//10
f 19//11 18//11 1//11 82//11
f 48//7 43//7 72//7 73//7
f 61//12 44//12 13//12 45//12
f 26//13 31//13 77//13 76//13
f 21//9 53//9 74//9 66//9
f 60//14 49//14 15//14 50//14
f 36//2 41//2 79//2 78//2
f 22//11 21//11 66//11 68//11
f 59//15 54//15 17//15 55//15
f 46//5 51//5 81//5 80//5
f 33//13 28//13 69//13 70//13
f 58//16 57//16 3//16 24//16
f 56//17 58//17 24//17 2//17
f 16//17 55//17 58//17 56//17
f 55//16 17//16 57//16 58//16
f 53//18 57//18 17//18
f 53//18 21//18 57//18
f 21//18 3//18 57//18
f 19//19 56//19 2//19
f 19//19 51//19 56//19
f 51//19 16//19 56//19
f 52//20 59//20 55//20 16//20
f 14//20 50//20 59//20 52//20
f 50//15 15//15 54//15 59//15
f 48//18 54//18 15//18
f 48//18 53//18 54//18
f 53//18 17//18 54//18
f 51//19 52//19 16//19
f 51//19 46//19 52//19
f 46//19 14//19 52//19
f 47//21 60//21 50//21 14//21
f 12//21 45//21 60//21 47//21
f 45//14 13//14 49//14 60//14
f 43//18 49//18 13//18
f 43//18 48//18 49//18
f 48//18 15//18 49//18
f 46//19 47//19 14//19
f 46//19 41//19 47//19
f 41//19 12//19 47//19
f 42//22 61//22 45//22 12//22
f 10//22 40//22 61//22 42//22
f 40//12 11//12 44//12 61//12
f 38//18 44//18 11//18
f 38//18 43//18 44//18
f 43//18 13//18 44//18
f 41//19 42//19 12//19
f 41//19 36//19 42//19
f 36//19 10//19 42//19
f 37//23 62//23 40//23 10//23
f 8//23 35//23 62//23 37//23
f 35//10 9//10 39//10 62//10
f 33//18 39//18 9//18
f 33//18 38//18 39//18
f 38//18 11//18 39//18
f 36//19 37//19 10//19
f 36//19 31//19 37//19
f 31//19 8//19 37//19
f 32//24 63//24 35//24 8//24
f 6//24 30//24 63//24 32//24
f 30//8 7//8 34//8 63//8
f 28//18 34//18 7//18
f 28//18 33//18 34//18
f 33//18 9//18 34//18
f 31//19 32//19 8//19
f 31//19 26//19 32//19
f 26//19 6//19 32//19
f 27//25 64//25 30//25 6//25
f 4//25 25//25 64//25 27//25
f 25//6 5//6 29//6 64//6
f 22//18 29//18 5//18
f 22//18 28//18 29//18
f 28//18 7//18 29//18
f 26//19 27//19 6//19
f 26//19 18//19 27//19
f 18//19 4//19 27//19
f 20//26 65//26 25//26 4//26
f 2//26 24//26 65//26 20//26
f 24//3 3//3 23//3 65//3
f 21//18 23//18 3//18
f 21//18 22//18 23//18
f 22//18 5//18 23//18
f 18//19 20//19 4//19
f 18//19 19//19 20//19
f 19//19 2//19 20//19
f 67//18 68//18 66//18
f 67//18 69//18 68//18
f 67//18 70//18 69//18
f 67//18 71//18 70//18
f 67//18 72//18 71//18
f 67//18 73//18 72//18
f 67//18 74//18 73//18
f 67//18 66//18 74//18
f 75//19 82//19 1//19
f 75//19 1//19 76//19
f 75//19 76//19 77//19
f 75//19 77//19 78//19
f 75//19 78//19 79//19
f 75//19 79//19 80//19
f 75//19 80//19 81//19
f 75//19 81//19 82//19
